# 1 "preprocessor.c"
# 1 "<command-line>"
# 1 "/usr/include/stdc-predef.h" 1 3 4
# 30 "/usr/include/stdc-predef.h" 3 4
# 1 "/usr/include/x86_64-linux-gnu/bits/predefs.h" 1 3 4
# 31 "/usr/include/stdc-predef.h" 2 3 4
# 1 "<command-line>" 2
# 1 "preprocessor.c"



printf("Hello World!");
printf("\"Hello, World!\"");


printf("Hello(,) World");

printf("Hello\"\\n\" World!");
printf("Hello\n\"\" World!");
printf("Hello\\n World!");

printf("hello");
